^D:\WINDOWS\BUREAU_TEMPORAIRE\A IMPRIMER\GIF-3003\PROJET\SEM7.1\SIMULATIONSPTR_016\SIMULATIONSPTR\SIMULATIONSPTR\CARTOGRAPHIE.RESX
^D:\WINDOWS\BUREAU_TEMPORAIRE\A IMPRIMER\GIF-3003\PROJET\SEM7.1\SIMULATIONSPTR_016\SIMULATIONSPTR\SIMULATIONSPTR\FORM1.RESX
^D:\WINDOWS\BUREAU_TEMPORAIRE\A IMPRIMER\GIF-3003\PROJET\SEM7.1\SIMULATIONSPTR_016\SIMULATIONSPTR\SIMULATIONSPTR\PROPERTIES\RESOURCES.RESX
^D:\WINDOWS\BUREAU_TEMPORAIRE\A IMPRIMER\GIF-3003\PROJET\SEM9\SIMULATIONSPTR_019\SIMULATIONSPTR\CARTOGRAPHIE.RESX
^D:\WINDOWS\BUREAU_TEMPORAIRE\A IMPRIMER\GIF-3003\PROJET\SEM9\SIMULATIONSPTR_019\SIMULATIONSPTR\PROPERTIES\RESOURCES.RESX
D:\WINDOWS\BUREAU_TEMPORAIRE\A IMPRIMER\GIF-3003\PROJET\SEM9\SIMULATIONSPTR_019\SIMULATIONSPTR\BIN\DEBUG\ABS.PNG
D:\WINDOWS\BUREAU_TEMPORAIRE\A IMPRIMER\GIF-3003\PROJET\SEM9\SIMULATIONSPTR_019\SIMULATIONSPTR\BIN\DEBUG\CHECKENG.PNG
D:\WINDOWS\BUREAU_TEMPORAIRE\A IMPRIMER\GIF-3003\PROJET\SEM9\SIMULATIONSPTR_019\SIMULATIONSPTR\BIN\DEBUG\DASH.JPG
D:\WINDOWS\BUREAU_TEMPORAIRE\A IMPRIMER\GIF-3003\PROJET\SEM9\SIMULATIONSPTR_019\SIMULATIONSPTR\BIN\DEBUG\DASH.PNG
^D:\WINDOWS\BUREAU_TEMPORAIRE\A IMPRIMER\GIF-3003\PROJET\SEM9\SIMULATIONSPTR_019\SIMULATIONSPTR\MAINFORM.RESX
^D:\WINDOWS\BUREAU_TEMPORAIRE\A IMPRIMER\GIF-3003\PROJET\SEM9\SIMULATIONSPTR_019\SIMULATIONSPTR\FORM1.RESX
C:\WINDOWS\ASSEMBLY\PUBPOL6.DAT
^D:\WINDOWS\BUREAU_TEMPORAIRE\A IMPRIMER\GIF-3003\PROJET\SEM9\SIMULATIONSPTR_023L1\SIMULATIONSPTR\FORM1.RESX
C:\WINDOWS\ASSEMBLY\PUBPOL6.DAT
C:\WINDOWS\MICROSOFT.NET\ASSEMBLY\GAC_MSIL\MICROSOFT.BUILD.TASKS.V4.0\V4.0_4.0.0.0__B03F5F7F11D50A3A\MICROSOFT.BUILD.TASKS.V4.0.DLL
^D:\WINDOWS\BUREAU_TEMPORAIRE\A IMPRIMER\GIF-3003\PROJET\SEM9\SIMULATIONSPTR_023L1\SIMULATIONSPTR\PROPERTIES\RESOURCES.RESX
D:\WINDOWS\BUREAU_TEMPORAIRE\A IMPRIMER\GIF-3003\PROJET\SEM9\SIMULATIONSPTR_023L1\SIMULATIONSPTR\BIN\DEBUG\FEUVERT.PNG
D:\WINDOWS\BUREAU_TEMPORAIRE\A IMPRIMER\GIF-3003\PROJET\SEM9\SIMULATIONSPTR_023L1\SIMULATIONSPTR\BIN\DEBUG\GRASS.JPG
D:\WINDOWS\BUREAU_TEMPORAIRE\A IMPRIMER\GIF-3003\PROJET\SEM9\SIMULATIONSPTR_023L1\SIMULATIONSPTR\BIN\DEBUG\DASH.PNG
D:\WINDOWS\BUREAU_TEMPORAIRE\A IMPRIMER\GIF-3003\PROJET\SEM9\SIMULATIONSPTR_023L1\SIMULATIONSPTR\BIN\DEBUG\CHECKENG.PNG
D:\WINDOWS\BUREAU_TEMPORAIRE\A IMPRIMER\GIF-3003\PROJET\SEM9\SIMULATIONSPTR_023L1\SIMULATIONSPTR\BIN\DEBUG\FEUROUGE.PNG
D:\WINDOWS\BUREAU_TEMPORAIRE\A IMPRIMER\GIF-3003\PROJET\SEM9\SIMULATIONSPTR_023L1\SIMULATIONSPTR\BIN\DEBUG\ABS.PNG
D:\WINDOWS\BUREAU_TEMPORAIRE\A IMPRIMER\GIF-3003\PROJET\SEM9\SIMULATIONSPTR_023L1\SIMULATIONSPTR\BIN\DEBUG\DASH.JPG
D:\WINDOWS\BUREAU_TEMPORAIRE\A IMPRIMER\GIF-3003\PROJET\SEM9\SIMULATIONSPTR_023L1\SIMULATIONSPTR\BIN\DEBUG\FEUJAUNE.PNG
